Match lipid molecules from MS2 data — match_ms2 • lipID
…
# Get only the molecules that satisfied all the rules.
confirmed_molecules %>% dplyr::filter(confirmed)
#> # A tibble: 122 x 22
#>    ms2_file precursor ms2_rt name  confirmed ions_matched fragments_inten…
#>    <fct>        <dbl>  <dbl> <chr> <lgl>     <chr>                   <dbl>
#>  1 ms2file       761.   32.3 PC(1… TRUE      [M+H]+;MH-P…        28804189.
#>  2 ms2file       735.   31.8 PC(1… TRUE      [M+H]+;MH-P…        25209814.
#>  3 ms2file       733.   30.2 PC(3… TRUE      [M+H]+;MH-P…        24422286.
#>  4 ms2file       787.   32.8 PC(1… TRUE      [M+H]+;MH-P…        24075173.
#>  5 ms2file       707.   29.5 PC(1… TRUE      [M+H]+;MH-P…        22843936.
#>  6 ms2file       761.   32.2 PC(1… TRUE      [M+H]+;MH-P…        22693128.
#>  7 ms2file       733.   30.2 PC(3… TRUE      [M+H]+;MH-P…        19348695.
#>  8 ms2file       763.   33.8 PC(1… TRUE      [M+H]+;MH-P…        18853109.
#>  9 ms2file       763.   33.8 PC(1… TRUE      [M+H]+;MH-P…        18797276.
#> 10 ms2file       787.   32.8 PC(1… TRUE      [M+H]+;MH-P…        18405277.
#> # … with 112 more rows, and 15 more variables: partial_match <dbl>, file <chr>,
#> #   class_name <chr>, sum_composition <chr>, odd_chain <lgl>, modifs <chr>,
#> #   total_cl <dbl>, total_cs <dbl>, n_and <int>, n_or <int>, n_and_true <int>,
#> #   n_or_true <int>, and_cols <lgl>, or_cols <lgl>, best_match <lgl>
…
